[{
	"x": 1,
	"y": [2.052999973297119]
}, {
	"x": 2,
	"y": [2.4240000247955322]
}, {
	"x": 3,
	"y": [1.7979999780654907]
}, {
	"x": 4,
	"y": [2.25]
}, {
	"x": 5,
	"y": [2.0739998817443848]
}, {
	"x": 6,
	"y": [2.0230000019073486]
}, {
	"x": 7,
	"y": [2.1700000762939453]
}, {
	"x": 8,
	"y": [2.196000099182129]
}, {
	"x": 9,
	"y": [2.1059999465942383]
}, {
	"x": 10,
	"y": [2.296999931335449]
}, {
	"x": 11,
	"y": [1.996999979019165]
}, {
	"x": 12,
	"y": [2.2639999389648438]
}, {
	"x": 13,
	"y": [1.9809999465942383]
}, {
	"x": 14,
	"y": [2.372999906539917]
}, {
	"x": 15,
	"y": [2.196000099182129]
}, {
	"x": 16,
	"y": [2.1570000648498535]
}, {
	"x": 17,
	"y": [1.9880000352859497]
}, {
	"x": 18,
	"y": [2.1630001068115234]
}, {
	"x": 19,
	"y": [2.388000011444092]
}, {
	"x": 20,
	"y": [2.2179999351501465]
}, {
	"x": 21,
	"y": [2.069000005722046]
}, {
	"x": 22,
	"y": [2.1640000343322754]
}, {
	"x": 23,
	"y": [2.0959999561309814]
}, {
	"x": 24,
	"y": [1.9789999723434448]
}, {
	"x": 25,
	"y": [2.1640000343322754]
}, {
	"x": 26,
	"y": [2.256999969482422]
}, {
	"x": 27,
	"y": [2.302999973297119]
}, {
	"x": 28,
	"y": [2.3299999237060547]
}, {
	"x": 29,
	"y": [2.2019999027252197]
}, {
	"x": 30,
	"y": [2.174999952316284]
}, {
	"x": 31,
	"y": [2.2730000019073486]
}, {
	"x": 32,
	"y": [2.1500000953674316]
}, {
	"x": 33,
	"y": [1.9800000190734863]
}, {
	"x": 34,
	"y": [2.115000009536743]
}, {
	"x": 35,
	"y": [2.242000102996826]
}, {
	"x": 36,
	"y": [2.444999933242798]
}, {
	"x": 37,
	"y": [2.2980000972747803]
}, {
	"x": 38,
	"y": [2.009999990463257]
}, {
	"x": 39,
	"y": [2.0160000324249268]
}, {
	"x": 40,
	"y": [2.122999906539917]
}, {
	"x": 41,
	"y": [2.2130000591278076]
}, {
	"x": 42,
	"y": [2.2230000495910645]
}, {
	"x": 43,
	"y": [2.1670000553131104]
}, {
	"x": 44,
	"y": [2.2309999465942383]
}, {
	"x": 45,
	"y": [2.2320001125335693]
}, {
	"x": 46,
	"y": [2.0439999103546143]
}, {
	"x": 47,
	"y": [2.0390000343322754]
}, {
	"x": 48,
	"y": [2.127000093460083]
}, {
	"x": 49,
	"y": [2.4000000953674316]
}, {
	"x": 50,
	"y": [2.424999952316284]
}, {
	"x": 51,
	"y": [2.2130000591278076]
}, {
	"x": 52,
	"y": [2.0799999237060547]
}, {
	"x": 53,
	"y": [2.010999917984009]
}, {
	"x": 54,
	"y": [2.1619999408721924]
}, {
	"x": 55,
	"y": [2.2820000648498535]
}, {
	"x": 56,
	"y": [2.25600004196167]
}, {
	"x": 57,
	"y": [2.183000087738037]
}, {
	"x": 58,
	"y": [2.130000114440918]
}, {
	"x": 59,
	"y": [2.0910000801086426]
}, {
	"x": 60,
	"y": [2.2839999198913574]
}, {
	"x": 61,
	"y": [2.322999954223633]
}, {
	"x": 62,
	"y": [2.0769999027252197]
}, {
	"x": 63,
	"y": [2.1440000534057617]
}, {
	"x": 64,
	"y": [2.193000078201294]
}, {
	"x": 65,
	"y": [2.260999917984009]
}, {
	"x": 66,
	"y": [2.2899999618530273]
}, {
	"x": 67,
	"y": [2.2269999980926514]
}, {
	"x": 68,
	"y": [2.2249999046325684]
}, {
	"x": 69,
	"y": [2.249000072479248]
}, {
	"x": 70,
	"y": [2.253000020980835]
}, {
	"x": 71,
	"y": [2.3369998931884766]
}, {
	"x": 72,
	"y": [2.2750000953674316]
}, {
	"x": 73,
	"y": [2.1470000743865967]
}, {
	"x": 74,
	"y": [1.9359999895095825]
}, {
	"x": 75,
	"y": [2.053999900817871]
}, {
	"x": 76,
	"y": [2.4119999408721924]
}, {
	"x": 77,
	"y": [2.3989999294281006]
}, {
	"x": 78,
	"y": [2.2780001163482666]
}, {
	"x": 79,
	"y": [2.234999895095825]
}, {
	"x": 80,
	"y": [2.312000036239624]
}, {
	"x": 81,
	"y": [2.2699999809265137]
}, {
	"x": 82,
	"y": [2.2860000133514404]
}, {
	"x": 83,
	"y": [2.2230000495910645]
}, {
	"x": 84,
	"y": [2.1630001068115234]
}, {
	"x": 85,
	"y": [2.2260000705718994]
}, {
	"x": 86,
	"y": [2.1019999980926514]
}, {
	"x": 87,
	"y": [2.1649999618530273]
}, {
	"x": 88,
	"y": [1.906000018119812]
}, {
	"x": 89,
	"y": [1.8480000495910645]
}, {
	"x": 90,
	"y": [2.1740000247955322]
}, {
	"x": 91,
	"y": [2.5480000972747803]
}, {
	"x": 92,
	"y": [2.5460000038146973]
}, {
	"x": 93,
	"y": [2.0969998836517334]
}, {
	"x": 94,
	"y": [2.059000015258789]
}, {
	"x": 95,
	"y": [2.180000066757202]
}, {
	"x": 96,
	"y": [2.1659998893737793]
}, {
	"x": 97,
	"y": [2.2760000228881836]
}, {
	"x": 98,
	"y": [2.1419999599456787]
}, {
	"x": 99,
	"y": [1.9220000505447388]
}, {
	"x": 100,
	"y": [2.124000072479248]
}, {
	"x": 101,
	"y": [2.3329999446868896]
}, {
	"x": 102,
	"y": [2.5339999198913574]
}, {
	"x": 103,
	"y": [2.2730000019073486]
}, {
	"x": 104,
	"y": [1.944000005722046]
}, {
	"x": 105,
	"y": [1.8630000352859497]
}, {
	"x": 106,
	"y": [2.124000072479248]
}, {
	"x": 107,
	"y": [2.4100000858306885]
}, {
	"x": 108,
	"y": [2.2820000648498535]
}, {
	"x": 109,
	"y": [2.1559998989105225]
}, {
	"x": 110,
	"y": [2.131999969482422]
}, {
	"x": 111,
	"y": [2.1470000743865967]
}, {
	"x": 112,
	"y": [2.1730000972747803]
}, {
	"x": 113,
	"y": [2.1570000648498535]
}, {
	"x": 114,
	"y": [2.24399995803833]
}, {
	"x": 115,
	"y": [2.127000093460083]
}, {
	"x": 116,
	"y": [1.9509999752044678]
}, {
	"x": 117,
	"y": [2.1549999713897705]
}, {
	"x": 118,
	"y": [2.371999979019165]
}, {
	"x": 119,
	"y": [2.25]
}, {
	"x": 120,
	"y": [2.184000015258789]
}, {
	"x": 121,
	"y": [2.240000009536743]
}, {
	"x": 122,
	"y": [2.2060000896453857]
}, {
	"x": 123,
	"y": [2.1610000133514404]
}, {
	"x": 124,
	"y": [2.2899999618530273]
}, {
	"x": 125,
	"y": [2.2039999961853027]
}, {
	"x": 126,
	"y": [2.0299999713897705]
}, {
	"x": 127,
	"y": [2.01200008392334]
}, {
	"x": 128,
	"y": [1.9859999418258667]
}, {
	"x": 129,
	"y": [2.1589999198913574]
}, {
	"x": 130,
	"y": [2.388000011444092]
}, {
	"x": 131,
	"y": [2.3389999866485596]
}, {
	"x": 132,
	"y": [2.23799991607666]
}, {
	"x": 133,
	"y": [2.1760001182556152]
}, {
	"x": 134,
	"y": [2.1989998817443848]
}, {
	"x": 135,
	"y": [2.2320001125335693]
}, {
	"x": 136,
	"y": [2.2869999408721924]
}, {
	"x": 137,
	"y": [2.1640000343322754]
}, {
	"x": 138,
	"y": [2.128999948501587]
}, {
	"x": 139,
	"y": [2.00600004196167]
}, {
	"x": 140,
	"y": [2.072000026702881]
}, {
	"x": 141,
	"y": [2.2899999618530273]
}, {
	"x": 142,
	"y": [2.388000011444092]
}, {
	"x": 143,
	"y": [2.302000045776367]
}, {
	"x": 144,
	"y": [2.118000030517578]
}, {
	"x": 145,
	"y": [2.0350000858306885]
}, {
	"x": 146,
	"y": [2.125999927520752]
}, {
	"x": 147,
	"y": [2.1570000648498535]
}, {
	"x": 148,
	"y": [2.302000045776367]
}, {
	"x": 149,
	"y": [2.2820000648498535]
}, {
	"x": 150,
	"y": [2.2179999351501465]
}, {
	"x": 151,
	"y": [2.183000087738037]
}, {
	"x": 152,
	"y": [2.125999927520752]
}, {
	"x": 153,
	"y": [2.078000068664551]
}, {
	"x": 154,
	"y": [2.180999994277954]
}, {
	"x": 155,
	"y": [2.2850000858306885]
}, {
	"x": 156,
	"y": [2.193000078201294]
}, {
	"x": 157,
	"y": [2.1470000743865967]
}, {
	"x": 158,
	"y": [2.2960000038146973]
}, {
	"x": 159,
	"y": [2.1600000858306885]
}, {
	"x": 160,
	"y": [2.0510001182556152]
}, {
	"x": 161,
	"y": [2.253999948501587]
}, {
	"x": 162,
	"y": [2.308000087738037]
}, {
	"x": 163,
	"y": [2.121000051498413]
}, {
	"x": 164,
	"y": [2.01200008392334]
}, {
	"x": 165,
	"y": [2.2079999446868896]
}, {
	"x": 166,
	"y": [2.3329999446868896]
}, {
	"x": 167,
	"y": [2.2239999771118164]
}, {
	"x": 168,
	"y": [2.115000009536743]
}, {
	"x": 169,
	"y": [2.3269999027252197]
}, {
	"x": 170,
	"y": [2.3259999752044678]
}, {
	"x": 171,
	"y": [2.197999954223633]
}, {
	"x": 172,
	"y": [2.1600000858306885]
}, {
	"x": 173,
	"y": [2.3469998836517334]
}, {
	"x": 174,
	"y": [2.38700008392334]
}, {
	"x": 175,
	"y": [2.322000026702881]
}, {
	"x": 176,
	"y": [2.305999994277954]
}, {
	"x": 177,
	"y": [2.2119998931884766]
}, {
	"x": 178,
	"y": [2.0309998989105225]
}, {
	"x": 179,
	"y": [2.1050000190734863]
}, {
	"x": 180,
	"y": [2.4230000972747803]
}, {
	"x": 181,
	"y": [2.3589999675750732]
}, {
	"x": 182,
	"y": [2.190999984741211]
}, {
	"x": 183,
	"y": [2.0390000343322754]
}, {
	"x": 184,
	"y": [2.1449999809265137]
}, {
	"x": 185,
	"y": [2.322000026702881]
}, {
	"x": 186,
	"y": [2.3350000381469727]
}, {
	"x": 187,
	"y": [2.3239998817443848]
}, {
	"x": 188,
	"y": [2.2100000381469727]
}, {
	"x": 189,
	"y": [2.315999984741211]
}, {
	"x": 190,
	"y": [2.0429999828338623]
}, {
	"x": 191,
	"y": [2.5789999961853027]
}, {
	"x": 192,
	"y": [1.9299999475479126]
}, {
	"x": 193,
	"y": [2.750999927520752]
}, {
	"x": 194,
	"y": [2.1449999809265137]
}, {
	"x": 195,
	"y": [2.299999952316284]
}, {
	"x": 196,
	"y": [2.0290000438690186]
}, {
	"x": 197,
	"y": [2.569000005722046]
}, {
	"x": 198,
	"y": [2.1589999198913574]
}, {
	"x": 199,
	"y": [2.4539999961853027]
}, {
	"x": 200,
	"y": [2.3410000801086426]
}, {
	"x": 201,
	"y": [2.2249999046325684]
}, {
	"x": 202,
	"y": [2.247999906539917]
}, {
	"x": 203,
	"y": [2.2890000343322754]
}, {
	"x": 204,
	"y": [2.371999979019165]
}, {
	"x": 205,
	"y": [2.056999921798706]
}, {
	"x": 206,
	"y": [2.125999927520752]
}, {
	"x": 207,
	"y": [2.5429999828338623]
}, {
	"x": 208,
	"y": [2.3420000076293945]
}, {
	"x": 209,
	"y": [2.4519999027252197]
}, {
	"x": 210,
	"y": [2.2260000705718994]
}, {
	"x": 211,
	"y": [2.4700000286102295]
}, {
	"x": 212,
	"y": [2.371000051498413]
}, {
	"x": 213,
	"y": [2.559999942779541]
}, {
	"x": 214,
	"y": [2.444999933242798]
}, {
	"x": 215,
	"y": [2.7200000286102295]
}, {
	"x": 216,
	"y": [2.808000087738037]
}, {
	"x": 217,
	"y": [2.930000066757202]
}, {
	"x": 218,
	"y": [3.052000045776367]
}, {
	"x": 219,
	"y": [2.765000104904175]
}, {
	"x": 220,
	"y": [3.4609999656677246]
}, {
	"x": 221,
	"y": [3.1610000133514404]
}, {
	"x": 222,
	"y": [3.6570000648498535]
}, {
	"x": 223,
	"y": [3.7149999141693115]
}, {
	"x": 224,
	"y": [3.7799999713897705]
}, {
	"x": 225,
	"y": [3.796999931335449]
}, {
	"x": 226,
	"y": [3.6019999980926514]
}, {
	"x": 227,
	"y": [3.9790000915527344]
}, {
	"x": 228,
	"y": [4.401000022888184]
}, {
	"x": 229,
	"y": [3.943000078201294]
}, {
	"x": 230,
	"y": [4.36899995803833]
}, {
	"x": 231,
	"y": [4.2270002365112305]
}, {
	"x": 232,
	"y": [4.689000129699707]
}, {
	"x": 233,
	"y": [4.380000114440918]
}, {
	"x": 234,
	"y": [4.947000026702881]
}, {
	"x": 235,
	"y": [5.1539998054504395]
}, {
	"x": 236,
	"y": [5.144000053405762]
}, {
	"x": 237,
	"y": [5.36899995803833]
}, {
	"x": 238,
	"y": [5.435999870300293]
}, {
	"x": 239,
	"y": [4.999000072479248]
}, {
	"x": 240,
	"y": [5.539999961853027]
}, {
	"x": 241,
	"y": [5.114999771118164]
}, {
	"x": 242,
	"y": [5.804999828338623]
}, {
	"x": 243,
	"y": [5.7820000648498535]
}, {
	"x": 244,
	"y": [6.072000026702881]
}, {
	"x": 245,
	"y": [6.546999931335449]
}, {
	"x": 246,
	"y": [6.011000156402588]
}, {
	"x": 247,
	"y": [6.685999870300293]
}, {
	"x": 248,
	"y": [6.59499979019165]
}, {
	"x": 249,
	"y": [6.514999866485596]
}, {
	"x": 250,
	"y": [6.675000190734863]
}, {
	"x": 251,
	"y": [6.7820000648498535]
}, {
	"x": 252,
	"y": [7.0879998207092285]
}, {
	"x": 253,
	"y": [6.671999931335449]
}, {
	"x": 254,
	"y": [7.198999881744385]
}, {
	"x": 255,
	"y": [6.620999813079834]
}, {
	"x": 256,
	"y": [7.7829999923706055]
}, {
	"x": 257,
	"y": [7.205999851226807]
}, {
	"x": 258,
	"y": [7.513999938964844]
}, {
	"x": 259,
	"y": [7.020999908447266]
}, {
	"x": 260,
	"y": [7.446000099182129]
}, {
	"x": 261,
	"y": [8.366000175476074]
}, {
	"x": 262,
	"y": [7.618000030517578]
}, {
	"x": 263,
	"y": [7.855000019073486]
}, {
	"x": 264,
	"y": [8.184000015258789]
}, {
	"x": 265,
	"y": [7.5279998779296875]
}, {
	"x": 266,
	"y": [8.359999656677246]
}, {
	"x": 267,
	"y": [7.599999904632568]
}, {
	"x": 268,
	"y": [8.371999740600586]
}, {
	"x": 269,
	"y": [7.820000171661377]
}, {
	"x": 270,
	"y": [7.998000144958496]
}, {
	"x": 271,
	"y": [7.867000102996826]
}, {
	"x": 272,
	"y": [8.147000312805176]
}, {
	"x": 273,
	"y": [8.65999984741211]
}, {
	"x": 274,
	"y": [9.121000289916992]
}, {
	"x": 275,
	"y": [8.65999984741211]
}, {
	"x": 276,
	"y": [7.668000221252441]
}, {
	"x": 277,
	"y": [7.718999862670898]
}, {
	"x": 278,
	"y": [8.359999656677246]
}, {
	"x": 279,
	"y": [9.050999641418457]
}, {
	"x": 280,
	"y": [8.213000297546387]
}, {
	"x": 281,
	"y": [7.88700008392334]
}, {
	"x": 282,
	"y": [7.9720001220703125]
}, {
	"x": 283,
	"y": [9.192999839782715]
}, {
	"x": 284,
	"y": [9.713000297546387]
}, {
	"x": 285,
	"y": [8.593999862670898]
}, {
	"x": 286,
	"y": [8.0600004196167]
}, {
	"x": 287,
	"y": [8.279999732971191]
}, {
	"x": 288,
	"y": [8.541999816894531]
}, {
	"x": 289,
	"y": [8.95199966430664]
}, {
	"x": 290,
	"y": [8.838000297546387]
}, {
	"x": 291,
	"y": [8.260000228881836]
}, {
	"x": 292,
	"y": [8.10099983215332]
}, {
	"x": 293,
	"y": [8.468999862670898]
}, {
	"x": 294,
	"y": [8.829999923706055]
}, {
	"x": 295,
	"y": [8.130999565124512]
}, {
	"x": 296,
	"y": [8.116999626159668]
}, {
	"x": 297,
	"y": [8.51200008392334]
}, {
	"x": 298,
	"y": [8.732000350952148]
}, {
	"x": 299,
	"y": [8.515000343322754]
}, {
	"x": 300,
	"y": [8.420000076293945]
}, {
	"x": 301,
	"y": [8.46399974822998]
}, {
	"x": 302,
	"y": [8.616000175476074]
}, {
	"x": 303,
	"y": [8.75100040435791]
}, {
	"x": 304,
	"y": [8.592000007629395]
}, {
	"x": 305,
	"y": [8.373000144958496]
}, {
	"x": 306,
	"y": [8.414999961853027]
}, {
	"x": 307,
	"y": [8.569999694824219]
}, {
	"x": 308,
	"y": [8.654999732971191]
}, {
	"x": 309,
	"y": [8.574999809265137]
}, {
	"x": 310,
	"y": [8.461999893188477]
}, {
	"x": 311,
	"y": [8.48900032043457]
}, {
	"x": 312,
	"y": [8.541999816894531]
}, {
	"x": 313,
	"y": [8.5600004196167]
}, {
	"x": 314,
	"y": [8.53600025177002]
}, {
	"x": 315,
	"y": [8.47700023651123]
}, {
	"x": 316,
	"y": [8.531999588012695]
}, {
	"x": 317,
	"y": [8.326000213623047]
}, {
	"x": 318,
	"y": [8.317999839782715]
}, {
	"x": 319,
	"y": [8.545000076293945]
}, {
	"x": 320,
	"y": [8.704999923706055]
}, {
	"x": 321,
	"y": [8.746000289916992]
}, {
	"x": 322,
	"y": [8.670000076293945]
}, {
	"x": 323,
	"y": [8.494000434875488]
}, {
	"x": 324,
	"y": [8.4350004196167]
}, {
	"x": 325,
	"y": [8.440999984741211]
}, {
	"x": 326,
	"y": [8.461999893188477]
}, {
	"x": 327,
	"y": [8.545000076293945]
}, {
	"x": 328,
	"y": [8.565999984741211]
}, {
	"x": 329,
	"y": [8.465999603271484]
}, {
	"x": 330,
	"y": [8.53600025177002]
}, {
	"x": 331,
	"y": [8.593000411987305]
}, {
	"x": 332,
	"y": [8.548999786376953]
}, {
	"x": 333,
	"y": [8.642999649047852]
}, {
	"x": 334,
	"y": [8.710000038146973]
}, {
	"x": 335,
	"y": [8.48900032043457]
}, {
	"x": 336,
	"y": [8.307000160217285]
}, {
	"x": 337,
	"y": [8.420000076293945]
}, {
	"x": 338,
	"y": [8.647000312805176]
}, {
	"x": 339,
	"y": [8.781999588012695]
}, {
	"x": 340,
	"y": [8.763999938964844]
}, {
	"x": 341,
	"y": [8.508000373840332]
}, {
	"x": 342,
	"y": [8.291000366210938]
}, {
	"x": 343,
	"y": [8.503000259399414]
}, {
	"x": 344,
	"y": [8.970000267028809]
}, {
	"x": 345,
	"y": [8.532999992370605]
}, {
	"x": 346,
	"y": [8.319000244140625]
}, {
	"x": 347,
	"y": [8.538000106811523]
}, {
	"x": 348,
	"y": [8.940999984741211]
}, {
	"x": 349,
	"y": [9.140999794006348]
}, {
	"x": 350,
	"y": [8.107000350952148]
}, {
	"x": 351,
	"y": [8.359000205993652]
}, {
	"x": 352,
	"y": [8.930999755859375]
}, {
	"x": 353,
	"y": [9.140999794006348]
}, {
	"x": 354,
	"y": [8.795000076293945]
}, {
	"x": 355,
	"y": [8.555999755859375]
}, {
	"x": 356,
	"y": [8.303999900817871]
}, {
	"x": 357,
	"y": [8.362000465393066]
}, {
	"x": 358,
	"y": [8.88700008392334]
}, {
	"x": 359,
	"y": [9.194000244140625]
}, {
	"x": 360,
	"y": [8.739999771118164]
}, {
	"x": 361,
	"y": [8.371000289916992]
}, {
	"x": 362,
	"y": [8.409000396728516]
}, {
	"x": 363,
	"y": [8.633999824523926]
}, {
	"x": 364,
	"y": [8.89799976348877]
}, {
	"x": 365,
	"y": [8.883999824523926]
}, {
	"x": 366,
	"y": [8.593999862670898]
}, {
	"x": 367,
	"y": [8.515999794006348]
}, {
	"x": 368,
	"y": [8.574999809265137]
}, {
	"x": 369,
	"y": [8.725000381469727]
}, {
	"x": 370,
	"y": [8.651000022888184]
}, {
	"x": 371,
	"y": [8.628999710083008]
}, {
	"x": 372,
	"y": [8.687999725341797]
}, {
	"x": 373,
	"y": [8.838000297546387]
}, {
	"x": 374,
	"y": [8.803000450134277]
}, {
	"x": 375,
	"y": [8.503000259399414]
}, {
	"x": 376,
	"y": [8.4399995803833]
}, {
	"x": 377,
	"y": [8.572999954223633]
}, {
	"x": 378,
	"y": [9.104999542236328]
}, {
	"x": 379,
	"y": [9.201000213623047]
}, {
	"x": 380,
	"y": [8.746000289916992]
}, {
	"x": 381,
	"y": [8.359000205993652]
}, {
	"x": 382,
	"y": [8.560999870300293]
}, {
	"x": 383,
	"y": [8.755000114440918]
}, {
	"x": 384,
	"y": [8.859999656677246]
}, {
	"x": 385,
	"y": [8.98900032043457]
}, {
	"x": 386,
	"y": [8.76200008392334]
}, {
	"x": 387,
	"y": [8.645000457763672]
}, {
	"x": 388,
	"y": [8.70199966430664]
}, {
	"x": 389,
	"y": [8.717000007629395]
}, {
	"x": 390,
	"y": [8.777999877929688]
}, {
	"x": 391,
	"y": [8.937999725341797]
}, {
	"x": 392,
	"y": [8.937000274658203]
}, {
	"x": 393,
	"y": [8.670000076293945]
}, {
	"x": 394,
	"y": [8.545999526977539]
}, {
	"x": 395,
	"y": [8.640000343322754]
}, {
	"x": 396,
	"y": [8.901000022888184]
}, {
	"x": 397,
	"y": [8.883000373840332]
}, {
	"x": 398,
	"y": [8.878000259399414]
}, {
	"x": 399,
	"y": [8.751999855041504]
}, {
	"x": 400,
	"y": [8.579999923706055]
}, {
	"x": 401,
	"y": [8.8100004196167]
}, {
	"x": 402,
	"y": [8.970999717712402]
}, {
	"x": 403,
	"y": [9.045000076293945]
}, {
	"x": 404,
	"y": [9.03600025177002]
}, {
	"x": 405,
	"y": [8.82699966430664]
}, {
	"x": 406,
	"y": [8.539999961853027]
}, {
	"x": 407,
	"y": [8.51099967956543]
}, {
	"x": 408,
	"y": [8.689000129699707]
}, {
	"x": 409,
	"y": [9.071999549865723]
}, {
	"x": 410,
	"y": [9.055999755859375]
}, {
	"x": 411,
	"y": [8.517999649047852]
}, {
	"x": 412,
	"y": [8.531999588012695]
}, {
	"x": 413,
	"y": [8.871999740600586]
}, {
	"x": 414,
	"y": [8.831000328063965]
}, {
	"x": 415,
	"y": [9.003999710083008]
}, {
	"x": 416,
	"y": [9.029999732971191]
}, {
	"x": 417,
	"y": [8.75100040435791]
}, {
	"x": 418,
	"y": [8.690999984741211]
}, {
	"x": 419,
	"y": [8.934000015258789]
}, {
	"x": 420,
	"y": [9.022000312805176]
}, {
	"x": 421,
	"y": [8.800999641418457]
}, {
	"x": 422,
	"y": [8.699000358581543]
}, {
	"x": 423,
	"y": [8.746000289916992]
}, {
	"x": 424,
	"y": [8.788000106811523]
}, {
	"x": 425,
	"y": [8.687000274658203]
}, {
	"x": 426,
	"y": [9.062000274658203]
}, {
	"x": 427,
	"y": [9.098999977111816]
}, {
	"x": 428,
	"y": [8.657999992370605]
}, {
	"x": 429,
	"y": [8.628000259399414]
}, {
	"x": 430,
	"y": [8.939000129699707]
}, {
	"x": 431,
	"y": [9.067000389099121]
}, {
	"x": 432,
	"y": [8.913000106811523]
}, {
	"x": 433,
	"y": [8.85200023651123]
}, {
	"x": 434,
	"y": [8.779000282287598]
}, {
	"x": 435,
	"y": [8.927000045776367]
}, {
	"x": 436,
	"y": [9.053999900817871]
}, {
	"x": 437,
	"y": [9.02400016784668]
}, {
	"x": 438,
	"y": [8.979999542236328]
}, {
	"x": 439,
	"y": [8.850000381469727]
}, {
	"x": 440,
	"y": [8.96399974822998]
}, {
	"x": 441,
	"y": [8.840999603271484]
}, {
	"x": 442,
	"y": [9.03600025177002]
}, {
	"x": 443,
	"y": [8.994000434875488]
}, {
	"x": 444,
	"y": [8.763999938964844]
}, {
	"x": 445,
	"y": [9.03600025177002]
}, {
	"x": 446,
	"y": [8.963000297546387]
}, {
	"x": 447,
	"y": [9.258000373840332]
}, {
	"x": 448,
	"y": [8.737000465393066]
}, {
	"x": 449,
	"y": [8.848999977111816]
}, {
	"x": 450,
	"y": [9.043999671936035]
}, {
	"x": 451,
	"y": [9.060999870300293]
}, {
	"x": 452,
	"y": [8.986000061035156]
}, {
	"x": 453,
	"y": [9.173999786376953]
}, {
	"x": 454,
	"y": [8.717000007629395]
}, {
	"x": 455,
	"y": [9.15999984741211]
}, {
	"x": 456,
	"y": [8.845999717712402]
}, {
	"x": 457,
	"y": [8.991000175476074]
}, {
	"x": 458,
	"y": [9.376999855041504]
}, {
	"x": 459,
	"y": [8.873000144958496]
}, {
	"x": 460,
	"y": [8.95300006866455]
}, {
	"x": 461,
	"y": [9.060999870300293]
}, {
	"x": 462,
	"y": [8.9399995803833]
}, {
	"x": 463,
	"y": [9.02400016784668]
}, {
	"x": 464,
	"y": [9.170000076293945]
}, {
	"x": 465,
	"y": [8.984000205993652]
}, {
	"x": 466,
	"y": [9.145999908447266]
}, {
	"x": 467,
	"y": [9.20300006866455]
}, {
	"x": 468,
	"y": [9.043999671936035]
}, {
	"x": 469,
	"y": [9.20300006866455]
}, {
	"x": 470,
	"y": [8.98799991607666]
}, {
	"x": 471,
	"y": [9.401000022888184]
}, {
	"x": 472,
	"y": [8.970999717712402]
}, {
	"x": 473,
	"y": [9.081999778747559]
}, {
	"x": 474,
	"y": [9.276000022888184]
}, {
	"x": 475,
	"y": [9.277000427246094]
}, {
	"x": 476,
	"y": [9.097999572753906]
}, {
	"x": 477,
	"y": [9.48900032043457]
}, {
	"x": 478,
	"y": [9.005000114440918]
}, {
	"x": 479,
	"y": [9.473999977111816]
}, {
	"x": 480,
	"y": [9.071000099182129]
}, {
	"x": 481,
	"y": [9.569000244140625]
}, {
	"x": 482,
	"y": [9.321000099182129]
}, {
	"x": 483,
	"y": [9.04800033569336]
}, {
	"x": 484,
	"y": [9.407999992370605]
}, {
	"x": 485,
	"y": [9.220000267028809]
}, {
	"x": 486,
	"y": [9.36299991607666]
}, {
	"x": 487,
	"y": [9.059000015258789]
}, {
	"x": 488,
	"y": [9.770999908447266]
}, {
	"x": 489,
	"y": [9.215999603271484]
}, {
	"x": 490,
	"y": [9.361000061035156]
}, {
	"x": 491,
	"y": [9.032999992370605]
}, {
	"x": 492,
	"y": [9.612000465393066]
}, {
	"x": 493,
	"y": [9.10099983215332]
}, {
	"x": 494,
	"y": [9.50100040435791]
}, {
	"x": 495,
	"y": [9.428000450134277]
}, {
	"x": 496,
	"y": [9.289999961853027]
}, {
	"x": 497,
	"y": [9.25]
}, {
	"x": 498,
	"y": [9.329999923706055]
}, {
	"x": 499,
	"y": [9.343999862670898]
}, {
	"x": 500,
	"y": [9.256999969482422]
}, {
	"x": 501,
	"y": [9.1899995803833]
}, {
	"x": 502,
	"y": [9.42300033569336]
}, {
	"x": 503,
	"y": [9.371000289916992]
}, {
	"x": 504,
	"y": [9.305999755859375]
}, {
	"x": 505,
	"y": [9.39799976348877]
}, {
	"x": 506,
	"y": [9.29800033569336]
}, {
	"x": 507,
	"y": [9.276000022888184]
}, {
	"x": 508,
	"y": [9.51099967956543]
}, {
	"x": 509,
	"y": [9.376999855041504]
}, {
	"x": 510,
	"y": [9.288000106811523]
}, {
	"x": 511,
	"y": [9.322999954223633]
}, {
	"x": 512,
	"y": [9.26200008392334]
}, {
	"x": 513,
	"y": [9.4399995803833]
}, {
	"x": 514,
	"y": [9.258999824523926]
}, {
	"x": 515,
	"y": [9.645000457763672]
}, {
	"x": 516,
	"y": [9.545999526977539]
}, {
	"x": 517,
	"y": [9.38700008392334]
}, {
	"x": 518,
	"y": [9.670999526977539]
}, {
	"x": 519,
	"y": [9.144000053405762]
}, {
	"x": 520,
	"y": [9.144000053405762]
}, {
	"x": 521,
	"y": [9.430000305175781]
}, {
	"x": 522,
	"y": [9.548999786376953]
}, {
	"x": 523,
	"y": [9.505000114440918]
}, {
	"x": 524,
	"y": [9.32800006866455]
}, {
	"x": 525,
	"y": [9.295000076293945]
}, {
	"x": 526,
	"y": [9.310999870300293]
}, {
	"x": 527,
	"y": [9.888999938964844]
}, {
	"x": 528,
	"y": [9.461000442504883]
}, {
	"x": 529,
	"y": [9.340999603271484]
}, {
	"x": 530,
	"y": [9.552000045776367]
}, {
	"x": 531,
	"y": [9.329000473022461]
}, {
	"x": 532,
	"y": [9.446000099182129]
}, {
	"x": 533,
	"y": [9.598999977111816]
}, {
	"x": 534,
	"y": [9.446999549865723]
}, {
	"x": 535,
	"y": [9.321000099182129]
}, {
	"x": 536,
	"y": [9.54699993133545]
}, {
	"x": 537,
	"y": [9.593999862670898]
}, {
	"x": 538,
	"y": [9.503999710083008]
}, {
	"x": 539,
	"y": [9.503000259399414]
}, {
	"x": 540,
	"y": [9.402000427246094]
}, {
	"x": 541,
	"y": [9.317000389099121]
}, {
	"x": 542,
	"y": [9.343999862670898]
}, {
	"x": 543,
	"y": [9.611000061035156]
}, {
	"x": 544,
	"y": [9.527999877929688]
}, {
	"x": 545,
	"y": [9.420000076293945]
}, {
	"x": 546,
	"y": [9.6850004196167]
}, {
	"x": 547,
	"y": [9.5649995803833]
}, {
	"x": 548,
	"y": [9.463000297546387]
}, {
	"x": 549,
	"y": [9.59000015258789]
}, {
	"x": 550,
	"y": [9.704000473022461]
}, {
	"x": 551,
	"y": [9.413000106811523]
}, {
	"x": 552,
	"y": [9.241000175476074]
}, {
	"x": 553,
	"y": [9.406999588012695]
}, {
	"x": 554,
	"y": [9.609999656677246]
}, {
	"x": 555,
	"y": [9.65999984741211]
}, {
	"x": 556,
	"y": [9.477999687194824]
}, {
	"x": 557,
	"y": [9.498000144958496]
}, {
	"x": 558,
	"y": [9.515000343322754]
}, {
	"x": 559,
	"y": [9.291999816894531]
}, {
	"x": 560,
	"y": [9.822999954223633]
}, {
	"x": 561,
	"y": [9.753999710083008]
}, {
	"x": 562,
	"y": [9.505000114440918]
}, {
	"x": 563,
	"y": [9.321999549865723]
}, {
	"x": 564,
	"y": [9.468000411987305]
}, {
	"x": 565,
	"y": [9.595000267028809]
}, {
	"x": 566,
	"y": [9.246999740600586]
}, {
	"x": 567,
	"y": [9.404999732971191]
}, {
	"x": 568,
	"y": [9.539999961853027]
}, {
	"x": 569,
	"y": [9.638999938964844]
}, {
	"x": 570,
	"y": [9.61400032043457]
}, {
	"x": 571,
	"y": [9.482000350952148]
}, {
	"x": 572,
	"y": [9.378999710083008]
}, {
	"x": 573,
	"y": [9.307000160217285]
}, {
	"x": 574,
	"y": [9.468999862670898]
}, {
	"x": 575,
	"y": [9.534000396728516]
}, {
	"x": 576,
	"y": [9.517999649047852]
}, {
	"x": 577,
	"y": [9.49899959564209]
}, {
	"x": 578,
	"y": [9.357999801635742]
}, {
	"x": 579,
	"y": [9, 375]
}, {
	"x": 580,
	"y": [9.47599983215332]
}, {
	"x": 581,
	"y": [9.449000358581543]
}, {
	"x": 582,
	"y": [9.513999938964844]
}, {
	"x": 583,
	"y": [9.486000061035156]
}, {
	"x": 584,
	"y": [9.593000411987305]
}, {
	"x": 585,
	"y": [9.73799991607666]
}, {
	"x": 586,
	"y": [9.663000106811523]
}, {
	"x": 587,
	"y": [9.326000213623047]
}, {
	"x": 588,
	"y": [9.140999794006348]
}, {
	"x": 589,
	"y": [9.496999740600586]
}, {
	"x": 590,
	"y": [9.520000457763672]
}, {
	"x": 591,
	"y": [9.557999610900879]
}, {
	"x": 592,
	"y": [9.678999900817871]
}, {
	"x": 593,
	"y": [9.618000030517578]
}, {
	"x": 594,
	"y": [9.461999893188477]
}, {
	"x": 595,
	"y": [9.218999862670898]
}, {
	"x": 596,
	"y": [9.437999725341797]
}, {
	"x": 597,
	"y": [9.704999923706055]
}, {
	"x": 598,
	"y": [9.711000442504883]
}, {
	"x": 599,
	"y": [9.579999923706055]
}, {
	"x": 600,
	"y": [9.486000061035156]
}, {
	"x": 601,
	"y": [9.484000205993652]
}, {
	"x": 602,
	"y": [9.369999885559082]
}, {
	"x": 603,
	"y": [9.543999671936035]
}, {
	"x": 604,
	"y": [9.515999794006348]
}, {
	"x": 605,
	"y": [9.519000053405762]
}, {
	"x": 606,
	"y": [9.741999626159668]
}, {
	"x": 607,
	"y": [9.973999977111816]
}, {
	"x": 608,
	"y": [8.468000411987305]
}, {
	"x": 609,
	"y": [8.678000450134277]
}, {
	"x": 610,
	"y": [10.430000305175781]
}, {
	"x": 611,
	"y": [10.062000274658203]
}, {
	"x": 612,
	"y": [9.279000282287598]
}, {
	"x": 613,
	"y": [8.802000045776367]
}]