[{
	"x": 1,
	"y": [120.052999973297119,80]
}, {
	"x": 2,
	"y": [120.4240000247955322,80]
}, {
	"x": 3,
	"y": [120.7979999780654907,80]
}, {
	"x": 4,
	"y": [120.25,80]
}, {
	"x": 5,
	"y": [120.0739998817443848,80]
}, {
	"x": 6,
	"y": [120.0230000015073486,80]
}, {
	"x": 7,
	"y": [120.1500000762939453,80]
}, {
	"x": 8,
	"y": [120.196000099182129,80]
}, {
	"x": 9,
	"y": [120.1059999465942383,80]
}, {
	"x": 10,
	"y": [120.296999931335449,80]
}, {
	"x": 11,
	"y": [120.996999979019165,80]
}, {
	"x": 12,
	"y": [120.2639999389648438,80]
}, {
	"x": 13,
	"y": [120.9809999465942383,80]
}, {
	"x": 14,
	"y": [120.372999906539917,80]
}, {
	"x": 15,
	"y": [120.196000099182129,80]
}, {
	"x": 16,
	"y": [123.1570000648498535,80]
}, {
	"x": 17,
	"y": [124.9880000352859497,80]
}, {
	"x": 18,
	"y": [124.1630001068115234,80]
}, {
	"x": 19,
	"y": [127.388000011444092,80]
}, {
	"x": 20,
	"y": [127.2179999351501465,80]
}, {
	"x": 85,
	"y": [128.2260000705718994,80]
}, {
	"x": 86,
	"y": [128.1019999980926514,80]
}, {
	"x": 87,
	"y": [128.1649999618530273,80]
}, {
	"x": 88,
	"y": [129.906000018119812,80]
}, {
	"x": 89,
	"y": [136.8480000495910645,80]
}, {
	"x": 90,
	"y": [140.8740000247955322,85]
}, {
	"x": 91,
	"y": [140.9485000972747853,85]
}, {
	"x": 366,
	"y": [150.593999862670898,85]
}, {
	"x": 367,
	"y": [150.515999794006348,85]
}, {
	"x": 368,
	"y": [150.574999809265137,90]
}, {
	"x": 368,
	"y": [150.674999909265137,90]
}, {
	"x": 368,
	"y": [155.774999909265137,90]
}, {
	"x": 368,
	"y": [155.974999909265137,90]
}, {
	"x": 369,
	"y": [155.725000381469727,90]
}, {
	"x": 370,
	"y": [158.651000022888184,90]
}, {
	"x": 371,
	"y": [158.628999710083008,90]
}, {
	"x": 372,
	"y": [158.687999725341797,98]
}, {
	"x": 373,
	"y": [158.839900297546387,98]
}, {
	"x": 374,
	"y": [158.983000450134277,98]
}, {
	"x": 375,
	"y": [160.503000259399414,98]
}, {
	"x": 376,
	"y": [160.4399995983833,98]
}]